{
	"CL2800 Gen10": {
		"BIOS": {
			"version": "2.1.0",
			"script": "/root/hp-bios-upgrade-2.1.0"
			},
		"IPMI": {
			"version": "2.22",
			"script": "/root/hp-ipmi-upgrade-2.22"
			}
	},
	"PowerEdge R610": {
	}
}
