{
	"machines": {
		"servers_per_port": {
			"type": "int",
			"default": "1",
			"description": "Swift num object server per port:",
			"roles": [ "swiftstore", "swiftproxy" ]
			},
		"network_chunk_size": {
			"type": "int",
			"default": "65535",
			"description": "Swift object network chunk size:",
			"roles": [ "swiftstore", "swiftproxy" ]
			},
		"disk_chunk_size": {
			"type": "int",
			"default": "524288",
			"description": "Swift object disk chunk size:",
			"roles": [ "swiftstore", "swiftproxy" ]
			},
		"lvm_backend_name": {
			"type": "string",
			"default": "LVM_1",
			"description": "Cinder LVM backend name:",
			"roles": [ "volume" ]
			},
		"availability_zone": {
			"type": "string",
			"default": "nova",
			"description": "Cinder Availability zone:",
			"roles": [ "volume" ]
			},
		"volume_copy_bps_limit": {
			"type": "int",
			"default": "1073741824",
			"description": "Cinder volume copy BPS limit:",
			"roles": [ "volume" ]
			},
		"cinder_reserved_percentage": {
			"type": "int",
			"default": "10",
			"description": "Cinder percentage of backend capacity is reserved:",
			"roles": [ "volume" ]
			},
		"cinder_max_over_subscription_ratio": {
			"type": "float",
			"default": "4.0",
			"description": "Cinder over subscription ratio when thin provisioning is enabled:",
			"roles": [ "volume" ]
			},
		"cinder_enabled_backends": {
			"type": "string",
			"default": "no-override",
			"description": "Cinder enabled backends override:",
			"roles": [ "volume" ]
		},
		"cinder_separate_volume_groups": {
			"type": "boolean",
			"default": "no",
			"description": "Cinder separate volume groups:",
			"roles": [ "volume" ]
		},
		"cpu_allocation_ratio": {
			"type": "float",
			"default": "16.0",
			"description": "Nova virtual CPU to physical CPU allocation ratio:",
			"roles": [ "compute" ]
		},
		"ram_allocation_ratio": {
			"type": "float",
			"default": "1.5",
			"description": "Nova virtual ram to physical ram allocation ratio:",
			"roles": [ "compute" ]
		},
		"disk_allocation_ratio": {
			"type": "float",
			"default": "1.0",
			"description": "Nova virtual disk to physical disk allocation ratio:",
			"roles": [ "compute" ]
		},
		"compute_is_cephosd": {
			"type": "boolean",
			"default": "no",
			"description": "Compute is cephosd:",
			"roles": [ "compute" ]
		},
		"neutron_external_network_name": {
			"type": "string",
			"default": "external",
			"description": "Neutron external network name:",
			"roles": [ "compute", "network" ]
			},
		"neutron_install_dragent": {
			"type": "boolean",
			"default": "no",
			"description": "Neutron install dynamic routing agent",
			"roles": [ "compute", "network" ]
			},
		"nova_reserved_host_memory_mb": {
			"type": "int",
			"default": "16384",
			"description": "Nova reserved host memory MB:",
			"roles": [ "compute" ]
			},
		"nova_reserved_host_disk_mb": {
			"type": "int",
			"default": "10240",
			"description": "Nova reserved host disk MB:",
			"roles": [ "compute" ]
			},
		"manila_share_install": {
			"type": "boolean",
			"default": "no",
			"description": "Manila share install:",
			"roles": [ "compute" ]
			},
		"kernel_from_backports": {
			"type": "boolean",
			"default": "no",
			"description": "Kernel from backports:",
			"roles": [ "all" ]
			},
		"brex_macaddr": {
			"type": "string",
			"default": "none",
			"description": "brex MAC address:",
			"roles": [ "controller", "compute", "network" ]
			},
		"swift_rsync_io_limit_activate": {
			"type": "boolean",
			"default": "no",
			"description": "Swift rsync IO limit:",
			"roles": [ "swiftstore", "swiftproxy" ]
			},
		"swift_rsync_io_limit_megabytes": {
			"type": "int",
			"default": "80",
			"description": "Swift rsync I/O limit value in MB:",
			"roles": [ "swiftstore", "swiftproxy" ]
			},
		"swift_rsync_io_limit_iops": {
			"type": "int",
			"default": "100",
			"description": "Swift rsync I/O max iops:",
			"roles": [ "swiftstore", "swiftproxy" ]
			}
		},
	"clusters": {
		"bgp_to_the_host": {
			"type": "boolean",
			"default": "no",
			"description": "BGP to the host networking:",
			"roles": ["compute", "controller", "network"]
		},
		"asn": {
			"type": "int",
			"default": "0",
			"description": "AS number:"
		},
		"nested_openstack": {
			"type": "boolean",
			"default": "no",
			"description": "Nested OpenStack:",
			"roles": ["compute"]
		},
		"admin_email_address": {
			"type": "string",
			"default": "admin@example.com",
			"description": "Admin email address:",
			"roles": ["controller", "network"]
		},
		"mail_relay_host": {
			"type": "string",
			"default": "mail.example.com",
			"description": "Mail relay host:"
		},
		"nova_limit_tenants_to_placement_aggregate": {
			"type": "boolean",
			"default": "no",
			"description": "Nova limit tenants to aggregates:",
			"roles": ["controller"]
		},
		"nova_scheduler_prefers_hosts_with_more_ram": {
			"type": "boolean",
			"default": "yes",
			"description": "Nova scheduler prefers hosts with more RAM available:",
			"roles": ["controller"]
		},
		"cinder_default_storage_availability_zone": {
			"type": "string",
			"default": "nova",
			"description": "Cinder default storage AZ:",
			"roles": ["controller"]
			},
		"cinder_default_volume_type": {
			"type": "string",
			"default": "LVM_1",
			"description": "Cinder default volume type:",
			"roles": ["controller"]
			},
		"cinder_backup_use_external_swift": {
			"type": "boolean",
			"default": "yes",
			"description": "Cinder backup use external swift:",
			"roles": ["controller", "compute"]
			},
		"glance_prefer_ceph_over_swift":{
			"type": "boolean",
			"default": "yes",
			"description": "Glance prefers Ceph over Swift backend:",
			"roles": ["controller"]
			},
		"cinder_backup_prefer_swift":{
			"type": "boolean",
			"default": "yes",
			"description": "Cinder backup prefers Swift over Ceph:"
			},
		"dhcp_domain": {
			"type": "fqdn",
			"default": "",
			"description": "Default DHCP domain name:",
			"roles": ["compute", "controller", "network"]
		},
		"neutron_global_physnet_mtu": {
			"type": "int",
			"default": "8950",
			"description": "Neutron global_physnet_mtu:",
			"roles": ["compute", "controller", "network"]
		},
		"neutron_path_mtu": {
			"type": "int",
			"default": "1550",
			"description": "Neutron path_mtu:",
			"roles": ["compute", "controller", "network"]
		},
		"neutron_dns_domain": {
			"type": "string",
			"default": "example.com.",
			"description": "Neutron DNS domain:",
			"roles": ["compute", "controller", "network"]
		},
		"neutron_use_dvr": {
			"type": "boolean",
			"default": "yes",
			"description": "Neutron use DVR:",
			"roles": ["compute", "controller", "network"]
		},
		"neutron_vxlan_vni_min": {
			"type": "int",
			"default": "1000",
			"description": "Neutron VXLAN VNI min:",
			"roles": ["compute", "controller", "network"]
		},
		"neutron_vxlan_vni_max": {
			"type": "int",
			"default": "9999",
			"description": "Neutron VXLAN VNI max:",
			"roles": ["compute", "controller", "network"]
		},
		"glance_metadef_admin_only":{
			"type": "boolean",
			"default": "yes",
			"description": "Glance metadef admin only (OSSN-0088):",
			"roles": ["controller"]
		},
		"install_designate": {
			"type": "boolean",
			"default": "no",
			"description": "Install designate:",
			"roles": ["compute", "controller", "network"]
		},
		"install_panko": {
			"type": "boolean",
			"default": "no",
			"description": "Install panko:",
			"roles": ["controller"]
		},
		"install_magnum": {
			"type": "boolean",
			"default": "no",
			"description": "Install magnum:",
			"roles": ["controller"]
		},
		"install_manila": {
			"type": "boolean",
			"default": "no",
			"description": "Install manila:",
			"roles": ["controller", "compute"]
		},
		"install_octavia": {
			"type": "boolean",
			"default": "yes",
			"description": "Install octavia:",
			"roles": ["controller"]
		},
		"install_telemetry": {
			"type": "boolean",
			"default": "yes",
			"description": "Install telemetry:",
			"roles": ["controller", "compute", "swiftproxy"]
		},
		"install_cloudkitty_dashboard": {
			"type": "boolean",
			"default": "yes",
			"description": "Install cloudkitty dashboard:",
			"roles": ["controller"]
		},
		"manila_network_cidr": {
			"type": "string",
			"default": "10.240.0.0/12",
			"description": "Manila network cidr:",
			"roles": ["controller", "compute"]
		},
		"manila_network_division_mask": {
			"type": "string",
			"default": "27",
			"description": "Manila network division mask:",
			"roles": ["controller", "compute"]
		},
		"generate_root_ssh_keys":{
			"type": "boolean",
			"default": "no",
			"description": "Generate root ssh keys:"
		},
		"api_disable_rate_limit": {
			"type": "boolean",
			"default": "no",
			"description": "API disable rate limit:",
			"roles": ["controller"]
		},
		"api_iptables_rate_limit": {
			"type": "int",
			"default": "100",
			"description": "API iptables rate limit:",
			"roles": ["controller"]
		},
		"api_haproxy_rate_limit": {
			"type": "int",
			"default": "80",
			"description": "API haproxy rate limit:",
			"roles": ["controller"]
		},
		"api_rate_limit_whitelist": {
			"type": "string",
			"default": "10.4.38.0/24",
			"description": "API rate limit whitelist:",
			"roles": ["controller"]
		},
		"swift_proxy_disable_rate_limit": {
			"type": "boolean",
			"default": "no",
			"description": "swift proxy disable rate limit:",
			"roles": ["swiftproxy"]
		},
		"swift_proxy_iptables_rate_limit": {
			"type": "int",
			"default": "100",
			"description": "swift proxy iptables rate limit:",
			"roles": ["swiftproxy"]
		},
		"swift_proxy_haproxy_rate_limit": {
			"type": "int",
			"default": "80",
			"description": "swift proxy haproxy rate limit:",
			"roles": ["swiftproxy"]
		},
		"swift_ec_enable": {
			"type": "boolean",
			"default": "no",
			"description": "Swift ec enable:",
			"roles": ["swiftproxy", "swiftobject"]
		},
		"swift_ec_policy_index": {
			"type": "int",
			"default": "1",
			"description": "Swift ec policy index:",
			"roles": ["swiftproxy", "swiftobject"]
		},
		"swift_ec_policy_name": {
			"type": "string",
			"default": "pyeclib-12-4",
			"description": "Swift ec policy name:",
			"roles": ["swiftproxy", "swiftobject"]
		},
		"swift_ec_type": {
			"type": "string",
			"default": "liberasurecode_rs_vand",
			"description": "Swift ec type:",
			"roles": ["swiftproxy", "swiftobject"]
		},
		"swift_ec_num_data_fragments": {
			"type": "int",
			"default": "12",
			"description": "Swift ec num data fragments:",
			"roles": ["swiftproxy", "swiftobject"]
		},
		"swift_ec_num_parity_fragments": {
			"type": "int",
			"default": "4",
			"description": "Swift ec num parity fragments:",
			"roles": ["swiftproxy", "swiftobject"]
		},
		"swift_ec_object_segment_size": {
			"type": "int",
			"default": "1048576",
			"description": "Swift ec object segment size:",
			"roles": ["swiftproxy", "swiftobject"]
		},
		"filebeat_enabled": {
			"type": "boolean",
			"default": "no",
			"description": "Filebeat enable:"
		},
		"filebeat_fields_under_root": {
			"type": "boolean",
			"default": "yes",
			"description": "Filebeat fields under root:"
		},
		"filebeat_logging_level": {
			"type": "string",
			"default": "info",
			"description": "Filebeat logging level:"
		},
		"filebeat_logging_syslog": {
			"type": "boolean",
			"default": "no",
			"description": "Filebeat logging to syslog:"
		},
		"filebeat_logging_files": {
			"type": "boolean",
			"default": "yes",
			"description": "Filebeat logging to files:"
		},
		"filebeat_logging_files_path": {
			"type": "string",
			"default": "/var/log/filebeat",
			"description": "Filebeat logging files path:"
		},
		"filebeat_logging_files_name": {
			"type": "string",
			"default": "filebeat",
			"description": "Filebeat logging files name:"
		},
		"aodh_notifier_use_proxy": {
			"type": "boolean",
			"default": "no",
			"description": "Aodh notifier use proxy:",
			"roles": ["controller"]
		},
		"aodh_notifier_proxy_url": {
			"type": "string",
			"default": "http://myproxy.example.com:3128/",
			"description": "Aodh notifier proxy URL:",
			"roles": ["controller"]
		},
		"messaging_node_memcache_memory_limit": {
			"type": "int",
			"default": "20",
			"description": "Messaging node memcache memory limit (percent):",
			"roles": ["messaging"]
		},
		"messaging_node_memcache_max_connections": {
			"type": "int",
			"default": "65536",
			"description": "Messaging node memcache max connections:",
			"roles": ["messaging"]
		},
		"horizon_themes": {
			"type": "string",
			"default": "default@Default@themes/default:material@Material@themes/material",
			"description": "Horizon themes:",
			"roles": ["controller"]
		},
		"haproxy_timeout_http_request": {
			"type": "string",
			"default": "10s",
			"description": "Haproxy default timeout for http-request",
			"roles": ["controller", "swiftproxy"]
		},
		"haproxy_timeout_queue": {
			"type": "string",
			"default": "1m",
			"description": "Haproxy default timeout for queue",
			"roles": ["controller", "swiftproxy"]
		},
		"haproxy_timeout_connect": {
			"type": "string",
			"default": "10s",
			"description": "Haproxy default timeout for connect",
			"roles": ["controller", "swiftproxy"]
		},
		"haproxy_timeout_client": {
			"type": "string",
			"default": "1m",
			"description": "Haproxy default timeout for client",
			"roles": ["controller", "swiftproxy"]
		},
		"haproxy_timeout_server": {
			"type": "string",
			"default": "1m",
			"description": "Haproxy default timeout for server",
			"roles": ["controller", "swiftproxy"]
		},
		"haproxy_timeout_check": {
			"type": "string",
			"default": "10s",
			"description": "Haproxy default timeout for check",
			"roles": ["controller", "swiftproxy"]
		}
	}
}
